ALDA2022 - conditional
…
Correlation of Fixed Effects:
      (Intr)
day01 -0.368

If we do not care about random effects, specify re_formula = NA

Code

library(tidybayes)
fixed.slope<- melsm %>% 
  data_grid(day01 = seq_range(day01, n = 20)) %>% 
  add_epred_draws(melsm.1, re_formula = NA )
  fixed.slope

# A tibble: 160,000 × 6
# Groups:   day01, .row [20]
   day01  .row .chain .iteration .draw .epred
   <dbl> <int>  <int>      <int> <int>  <dbl>
 1     0     1     NA         NA     1 0.0680
 2     0     1     NA         NA     2 0.0388
 3     0     1     NA         NA     3 0.0315
 4     0     1     NA         NA     4 0.0407
 5     0     1     NA         NA     5 0.0363
 6     0     1     NA         NA     6 0.0128
 7     0     1     NA         NA     7 0.0531
 8     0     1     NA         NA     8 0.0836
 9     0     1     NA         NA     9 0.0961
10     0     1     NA         NA    10 0.0742
# … with 159,990 more rows

If we want random effects we need to specify the variable to get ALL levels.

Code

melsm %>% 
  data_grid(day01 = seq_range(day01, n = 20), record_id) 

# A tibble: 3,860 × 2
   day01 record_id
   <dbl>     <int>
 1     0         1
 2     0         2
 3     0         3
 4     0         4
 5     0         5
 6     0         6
 7     0         7
 8     0         8
 9     0         9
10     0        10
# … with 3,850 more rows

193 people * 20 = 3860

Then we need to state re_forumla = NULL (which is the default)

Code

melsm %>% 
  data_grid(day01 = seq_range(day01, n = 20), record_id) %>% 
  add_epred_draws(melsm.1, re_formula = NULL )

# A tibble: 30,880,000 × 7
# Groups:   day01, record_id, .row [3,860]
   day01 record_id  .row .chain .iteration .draw .epred
   <dbl>     <int> <int>  <int>      <int> <int>  <dbl>
 1     0         1     1     NA         NA     1 0.333 
 2     0         1     1     NA         NA     2 0.225 
 3     0         1     1     NA         NA     3 0.237 
 4     0         1     1     NA         NA     4 0.0955
 5     0         1     1     NA         NA     5 0.193 
 6     0         1     1     NA         NA     6 0.144 
 7     0         1     1     NA         NA     7 0.280 
 8     0         1     1     NA         NA     8 0.0884
 9     0         1     1     NA         NA     9 0.205 
10     0         1     1     NA         NA    10 0.0894
# … with 30,879,990 more rows
…
melsm.2 %>% 
  spread_draws(b_day01) %>% 
  median_qi()

# A tibble: 1 × 6
  b_day01 .lower  .upper .width .point .interval
    <dbl>  <dbl>   <dbl>  <dbl> <chr>  <chr>    
1  -0.159 -0.258 -0.0547   0.95 median qi       

Code

melsm.2 %>% 
spread_draws(b_sigma_Intercept,r_record_id__sigma[ID, term]) 

# A tibble: 1,544,000 × 7
# Groups:   ID, term [193]
   .chain .iteration .draw b_sigma_Intercept    ID term      r_record_id__sigma
    <int>      <int> <int>             <dbl> <int> <chr>                  <dbl>
 1      1          1     1            -0.828     1 Intercept              0.510
 2      1          1     1            -0.828     2 Intercept             -0.994
 3      1          1     1            -0.828     3 Intercept              0.115
 4      1          1     1            -0.828     4 Intercept              0.793
 5      1          1     1            -0.828     5 Intercept             -0.837
 6      1          1     1            -0.828     6 Intercept              0.367
 7      1          1     1            -0.828     7 Intercept              0.108
 8      1          1     1            -0.828     8 Intercept             -0.901
 9      1          1     1            -0.828     9 Intercept             -0.444
10      1          1     1            -0.828    10 Intercept             -0.167
# … with 1,543,990 more rows
…
# A tibble: 1 × 6
  sigma_day1 .lower .upper .width .point .interval
       <dbl>  <dbl>  <dbl>  <dbl> <chr>  <chr>    
1      0.425  0.380  0.476   0.95 median qi       

Code

 melsm %>% 
  data_grid(day01 = seq_range(day01, n = 20), .model = melsm) %>% 
  add_epred_draws(melsm.3, re_formula = NA, dpar = T) %>% 
  ungroup() %>% 
  select(day01, .epred, sigma)

# A tibble: 160,000 × 3
   day01   .epred sigma
   <dbl>    <dbl> <dbl>
 1     0  0.00469 0.484
 2     0  0.0452  0.494
 3     0 -0.00387 0.484
 4     0 -0.00754 0.467
 5     0  0.0198  0.473
 6     0  0.0265  0.496
 7     0  0.0509  0.517
 8     0  0.0910  0.480
 9     0  0.0772  0.500
10     0  0.107   0.479
# … with 159,990 more rows
…
Lets look at random effects. Remember we fit a random effect for both the intercept and the slope (time)

Code

melsm.3 %>% 
spread_draws(r_record_id__sigma[ID, term]) %>% 
  mutate(r_record_id__sigma = exp(r_record_id__sigma)) 

# A tibble: 3,088,000 × 6
# Groups:   ID, term [386]
      ID term  r_record_id__sigma .chain .iteration .draw
   <int> <chr>              <dbl>  <int>      <int> <int>
 1     1 day01               1.26      1          1     1
 2     1 day01               1.24      1          2     2
 3     1 day01               1.08      1          3     3
 4     1 day01               1.40      1          4     4
 5     1 day01               1.14      1          5     5
 6     1 day01               1.03      1          6     6
 7     1 day01               1.54      1          7     7
 8     1 day01               1.05      1          8     8
 9     1 day01               1.12      1          9     9
10     1 day01               1.13      1         10    10
# … with 3,087,990 more rows

193 * 8000 *2

Code

melsm.3 %>% 
spread_draws(r_record_id__sigma[ID, term]) %>% 
  mutate(r_record_id__sigma = exp(r_record_id__sigma)) %>% 
   median_qi(estimate = r_record_id__sigma) 

# A tibble: 386 × 8
      ID term      estimate .lower .upper .width .point .interval
   <int> <chr>        <dbl>  <dbl>  <dbl>  <dbl> <chr>  <chr>    
 1     1 day01        1.19   0.816  1.77    0.95 median qi       
 2     1 Intercept    1.41   1.08   1.84    0.95 median qi       
 3     2 day01        1.55   1.04   2.35    0.95 median qi       
 4     2 Intercept    0.239  0.178  0.322   0.95 median qi       
 5     3 day01        0.829  0.563  1.24    0.95 median qi       
 6     3 Intercept    1.32   1.03   1.74    0.95 median qi       
 7     4 day01        0.971  0.632  1.52    0.95 median qi       
 8     4 Intercept    1.90   1.44   2.52    0.95 median qi       
 9     5 day01        1.14   0.638  2.11    0.95 median qi       
10     5 Intercept    0.431  0.301  0.666   0.95 median qi       
# … with 376 more rows
…
