ALDA2022 - Thinking longitudinally
…
Prerequisites

Ordinal or greater scale of measurement us easiest. Dichotomous is hard.

Construct has the same meaning across measurement occasions. Usually the same items. Called measurement invariance. Complicates developmental work.

2 or more measurement occasions. More is better! Though often 3 - 10 is practically fine for some models. With 30+ occasions you have “intensive” longitudinal data which presents new models and opportunities.

Example

Data
Plot

# A tibble: 225 × 51
      ID group  time    CON CON_SAL CON_SMN7   DAN DAN_CON DAN_SAL DAN_SMN7
   <dbl> <chr> <dbl>  <dbl>   <dbl>    <dbl> <dbl>   <dbl>   <dbl>    <dbl>
 1     6 PD        4 0.193   0.0708   0.0088 0.162  0.116   0.0739   0.0041
 2     6 PD        5 0.195   0.0862   0.004  0.168  0.117   0.0812   0.0204
 3     6 PD        6 0.181   0.0916  -0.0037 0.215  0.164   0.113    0.0155
 4    29 PD        4 0.159   0.0438  -0.0253 0.175  0.0161  0.0621   0.0121
 5    29 PD        5 0.0881  0.0446  -0.0288 0.136  0.0377  0.0277   0.0444
 6    34 CTRL      4 0.137   0.0113  -0.0792 0.166  0.0045 -0.0075   0.0432
 7    34 CTRL      6 0.0746  0.0009  -0.0089 0.140  0.0635 -0.024    0.0483
 8    36 CTRL      1 0.139   0.0438  -0.0466 0.152  0.0279  0.0137   0.0513
 9    36 CTRL      4 0.180   0.0772  -0.0648 0.205 -0.0116 -0.0477   0.0415
10    37 PD        3 0.226   0.0412  -0.0565 0.219  0.0971  0.0195   0.0644
# … with 215 more rows, and 41 more variables: DMN6 <dbl>, DMN6_CON <dbl>,
#   DMN6_DAN <dbl>, DMN6_SAL <dbl>, DMN6_SMN7 <dbl>, SAL <dbl>, SAL_SMN7 <dbl>,
#   SMN7 <dbl>, wave <dbl>, date <date>, Exclude <chr>, RSNdata <dbl>,
#   RSNexclude <chr>, RSNexcludeDevDem <chr>, CogDate_0 <date>,
#   CCIRtrio_MR_date_0 <date>, Dur_PDsx_0 <dbl>, PIBpos18 <chr>,
#   Neuro_Dx <chr>, NeuroCDR_0 <chr>, NeuroCDR_1 <chr>, NeuroCDR_2 <chr>,
#   NeuroCDR_3 <chr>, NeuroCDR_4 <chr>, NeuroCDR_5 <chr>, NeuroCDR_6 <chr>, …
…
tidyr pivot functions

For longitudinal/repeated measures data, each row is an observation. Each person will have multiple rows.

# A tibble: 225 × 4
      ID  wave group   DAN
   <dbl> <dbl> <chr> <dbl>
 1     6     1 PD    0.162
 2     6     2 PD    0.168
 3     6     3 PD    0.215
 4    29     1 PD    0.175
 5    29     2 PD    0.136
 6    34     1 CTRL  0.166
 7    34     2 CTRL  0.140
 8    36     1 CTRL  0.152
 9    36     2 CTRL  0.205
10    37     1 PD    0.219
# … with 215 more rows

pivot_wider

The pivot_wider() function takes two arguments: names_from which is the variable whose values will be converted to column names and values_from whose values will be cell values.

wide.ex <- long %>% 
  pivot_wider(names_from = wave, values_from = DAN) 
wide.ex

# A tibble: 91 × 6
      ID group    `1`    `2`    `3`   `4`
   <dbl> <chr>  <dbl>  <dbl>  <dbl> <dbl>
 1     6 PD    0.162  0.168   0.215    NA
 2    29 PD    0.175  0.136  NA        NA
 3    34 CTRL  0.166  0.140  NA        NA
 4    36 CTRL  0.152  0.205  NA        NA
 5    37 PD    0.219  0.158   0.259    NA
 6    48 PD    0.130  0.270   0.248    NA
 7    53 CTRL  0.211  0.152  NA        NA
 8    54 PD    0.220  0.152   0.192    NA
 9    58 PD    0.380  0.215   0.204    NA
10    61 PD    0.0818 0.0628 NA        NA
# … with 81 more rows

pivot_longer

The pivot_longer function takes three arguments: - cols is a list of columns that are to be collapsed. The columns can be referenced by column number or column name. - names_to is the name of the new column which will combine all column names. This is up to you to decide what the name is. - values_to is the name of the new column which will combine all column values associated with each variable combination.

wide.ex %>% 
  pivot_longer(cols = '1':'4', 
               names_to = "wave", 
               values_to = "DAN")

# A tibble: 364 × 4
      ID group wave     DAN
   <dbl> <chr> <chr>  <dbl>
 1     6 PD    1      0.162
 2     6 PD    2      0.168
 3     6 PD    3      0.215
 4     6 PD    4     NA    
 5    29 PD    1      0.175
 6    29 PD    2      0.136
 7    29 PD    3     NA    
 8    29 PD    4     NA    
 9    34 CTRL  1      0.166
10    34 CTRL  2      0.140
# … with 354 more rows
…
