ALDA2022 - MLM
…
(Intercept) 
   4.765349 

Residuals

To get residuals and fitted scores

Code

library(broom.mixed)
example.aug<- augment(mod.1, data = b5_long)

example.aug

# A tibble: 30,232 × 21
   Procedural__SID year    DOB   Sex     A     C     E     N     O ID    .fitted
             <dbl> <chr> <dbl> <dbl> <dbl> <dbl> <dbl> <dbl> <dbl> <fct>   <dbl>
 1             901 2005   1951     2  4.67  5     5     4     4    901      4.90
 2             901 2009   1951     2  4.33  5     5     4.67  4    901      4.90
 3             901 2013   1951     2  4.67  5     5     4.33  3.33 901      4.90
 4            1202 2005   1913     2  4     4     6.67  5     5.67 1202     4.51
 5            2301 2005   1946     1  5.67  5.67  5     4.33  4.33 2301     5.10
 6            2301 2009   1946     1  5.67  5     4     5.33  5    2301     5.10
 7            2301 2013   1946     1  4.67  5.33  5.33  3.67  5    2301     5.10
 8            2302 2005   1946     2  4.67  4.67  4.67  3.67  5    2302     5.04
 9            2302 2009   1946     2  4     6     5.33  3     4.33 2302     5.04
10            2302 2013   1946     2  3.33  5     4.67  3     5.67 2302     5.04
# … with 30,222 more rows, and 10 more variables: .resid <dbl>, .hat <dbl>,
#   .cooksd <dbl>, .fixed <dbl>, .mu <dbl>, .offset <dbl>, .sqrtXwt <dbl>,
#   .sqrtrwt <dbl>, .weights <dbl>, .wtres <dbl>
…
b5_long %>% 
  data_grid(year.c = seq_range(year.c, n = 10), ID)

# A tibble: 167,190 × 2
   year.c ID   
    <dbl> <fct>
 1      0 901  
 2      0 1202 
 3      0 2301 
 4      0 2302 
 5      0 2304 
 6      0 4601 
 7      0 4701 
 8      0 4901 
 9      0 5201 
10      0 5202 
# … with 167,180 more rows

b5_long %>% 
  data_grid(year.c = seq_range(year.c, n = 10), .model = b5_long)

# A tibble: 49,680 × 10
   year.c  year   DOB   Sex     A     C     E     N     O ID     
    <dbl> <dbl> <dbl> <dbl> <dbl> <dbl> <dbl> <dbl> <dbl> <chr>  
 1      0  2009  1959     2  4.67  4.67     5  4.33  4.67 100001 
 2      0  2009  1959     2  4.67  4.67     5  4.33  4.67 1000202
 3      0  2009  1959     2  4.67  4.67     5  4.33  4.67 1000402
 4      0  2009  1959     2  4.67  4.67     5  4.33  4.67 1000902
 5      0  2009  1959     2  4.67  4.67     5  4.33  4.67 1003602
 6      0  2009  1959     2  4.67  4.67     5  4.33  4.67 1003702
 7      0  2009  1959     2  4.67  4.67     5  4.33  4.67 1003703
 8      0  2009  1959     2  4.67  4.67     5  4.33  4.67 1004202
 9      0  2009  1959     2  4.67  4.67     5  4.33  4.67 1006102
10      0  2009  1959     2  4.67  4.67     5  4.33  4.67 1007602
# … with 49,670 more rows

b5_long %>% 
  data_grid(year.c = seq_range(year.c, n = 10), .model = b5_long) %>% 
    add_predictions(mod.4)

# A tibble: 49,680 × 11
   year.c  year   DOB   Sex     A     C     E     N     O ID       pred
    <dbl> <dbl> <dbl> <dbl> <dbl> <dbl> <dbl> <dbl> <dbl> <chr>   <dbl>
 1      0  2009  1959     2  4.67  4.67     5  4.33  4.67 100001   4.75
 2      0  2009  1959     2  4.67  4.67     5  4.33  4.67 1000202  5.47
 3      0  2009  1959     2  4.67  4.67     5  4.33  4.67 1000402  5.01
 4      0  2009  1959     2  4.67  4.67     5  4.33  4.67 1000902  4.81
 5      0  2009  1959     2  4.67  4.67     5  4.33  4.67 1003602  5.34
 6      0  2009  1959     2  4.67  4.67     5  4.33  4.67 1003702  4.81
 7      0  2009  1959     2  4.67  4.67     5  4.33  4.67 1003703  4.61
 8      0  2009  1959     2  4.67  4.67     5  4.33  4.67 1004202  4.61
 9      0  2009  1959     2  4.67  4.67     5  4.33  4.67 1006102  4.94
10      0  2009  1959     2  4.67  4.67     5  4.33  4.67 1007602  4.88
# … with 49,670 more rows
…
